…
```r
galah_call() |>
  galah_filter(
     taxonConceptID == search_taxa("Animalia")$taxon_concept_id,
     taxonConceptID != search_taxa("Chordata")$taxon_concept_id
  ) |>
  galah_group_by(class) |>
  atlas_counts()
```

```
## # A tibble: 83 × 2
##    class          count
##    <chr>          <int>
##  1 Insecta      3307548
##  2 Gastropoda    837104
##  3 Arachnida     525840
##  4 Malacostraca  515797
##  5 Maxillopoda   462743
##  6 Polychaeta    256905
##  7 Bivalvia      206137
##  8 Anthozoa      163329
##  9 Demospongiae  107498
## 10 Ostracoda      56295
## # … with 73 more rows
```

# galah_group_by
Use `galah_group_by` to group record counts and summarise counts by specified fields:


```r
# Get record counts since 2010, grouped by year and basis of record
galah_call() |>
  galah_filter(year > 2015 & year <= 2020) |>
  galah_group_by(year, basisOfRecord) |>
  atlas_counts()
```

```
## # A tibble: 35 × 3
##    year  basisOfRecord         count
##    <chr> <chr>                 <int>
##  1 2020  HUMAN_OBSERVATION   5820506
##  2 2020  PRESERVED_SPECIMEN    13637
##  3 2020  OBSERVATION            2863
##  4 2020  UNKNOWN                 365
##  5 2020  MATERIAL_SAMPLE         250
##  6 2020  LIVING_SPECIMEN         127
##  7 2020  MACHINE_OBSERVATION      37
##  8 2019  HUMAN_OBSERVATION   5399921
##  9 2019  UNKNOWN               51747
## 10 2019  PRESERVED_SPECIMEN    38117
## # … with 25 more rows
```
…
