…
```r
galah_call() |>
  galah_filter(
     taxonConceptID == search_taxa("Animalia")$taxon_concept_id,
     taxonConceptID != search_taxa("Chordata")$taxon_concept_id
  ) |>
  galah_group_by(class) |>
  atlas_counts()
```

```
## # A tibble: 83 × 2
##    class          count
##    <chr>          <int>
##  1 Insecta      3307548
##  2 Gastropoda    837104
##  3 Arachnida     525840
##  4 Malacostraca  515797
##  5 Maxillopoda   462743
##  6 Polychaeta    256905
##  7 Bivalvia      206137
##  8 Anthozoa      163329
##  9 Demospongiae  107498
## 10 Ostracoda      56295
## # … with 73 more rows
```
…
