…
```r
galah_config(atlas = "Guatemala")
```

```
## Atlas selected: Sistema Nacional de Información sobre Diversidad Biológica de Guatemala (SNIBgt) [Guatemala]
```

```r
show_all(datasets)
```

```
## # A tibble: 1,283 × 3
##    id     name                                                                                                                     uri  
##    <chr>  <chr>                                                                                                                    <chr>
##  1 dr1440 A catalogue of the Heteroptera (Hemiptera) or true bugs of Argentina                                                     http…
##  2 dr1436 A cybercatalogue of American sand fly types (Diptera, Psychodidae, Phlebotominae) deposited at the Natural History Muse… http…
##  3 dr1226 A distinctive new species of biting midge in the subgenus Euprojoannisia Brèthes from Mexico with new records of Neotro… http…
##  4 dr321  A Distribution and Taxonomic Reference Dataset of Geranium (Geraniaceae) in the New World                                http…
##  5 dr1285 A geographic distribution database of the cassava whitefly complex (Hemiptera, Aleyrodidae) and their associated parasi… http…
##  6 dr12   A global database for the distributions of crop wild relatives                                                           http…
##  7 dr467  A matrix-based revision of the genus Hypogena Dejean, 1834 (Coleoptera Tenebrionidae)                                    http…
##  8 dr1061 A Monographic Revision of the Genus Hoplopyga Thomson, 1880 (Coleoptera: Scarabaeidae: Cetoniinae: Gymnetini)            http…
##  9 dr1570 A new Anomiopus Westwood (Coleoptera: Scarabaeidae: Scarabaeinae) from the Mayan Biosphere Reserve, Petén, Guatemala     http…
## 10 dr1177 A new Central American genus of pleasing fungus beetles (Coleoptera: Erotylidae) from the Ischyrus-Megischyrus complex   http…
## # ℹ 1,273 more rows
```

```r
show_all(fields)
```

```
## # A tibble: 127 × 3
##    id                   description        type  
##    <chr>                <chr>              <chr> 
##  1 all_image_url        <NA>               fields
##  2 assertion_user_id    Assertions by user fields
##  3 assertions           Record issues      fields
##  4 assertions_missing   <NA>               fields
##  5 assertions_passed    <NA>               fields
##  6 assertions_unchecked <NA>               fields
##  7 basis_of_record      Record type        fields
##  8 catalogue_number     Catalogue Number   fields
##  9 cl10011              <NA>               fields
## 10 class                Class              fields
## # ℹ 117 more rows
```
…
