…
```r
profiles <- show_all_profiles()
```
View filters included in a profile

```r
find_profile_attributes("ALA")
```

```
## # A tibble: 23 × 2
##    description                                                                          filter                          
##    <chr>                                                                                <chr>                           
##  1 "Exclude all records where spatial validity is \"false\""                            "-spatiallyValid:\"false\""     
##  2 "Exclude all records with an assertion that the scientific name provided does not m… "-assertions:TAXON_MATCH_NONE"  
##  3 "Exclude all records with an assertion that the scientific name provided is not str… "-assertions:INVALID_SCIENTIFIC…
##  4 "Exclude all records with an assertion that the name and classification supplied ca… "-assertions:TAXON_HOMONYM"     
##  5 "Exclude all records with an assertion that kingdom provided doesn't match a known … "-assertions:UNKNOWN_KINGDOM"   
##  6 "Exclude all records with an assertion that the scientific name provided in the rec… "-assertions:TAXON_SCOPE_MISMAT…
##  7 "Exclude all records with an assertion of the occurence is cultivated or escaped fr… "-establishmentMeans:\"MANAGED\…
##  8 "Exclude all records with an assertion of latitude value provided is zero"           "-decimalLatitude:0"            
##  9 "Exclude all records with an assertion of longitude value provided is zero"          "-decimalLongitude:0"           
## 10 "Exclude all records with an assertion of  latitude and longitude have been transpo… "-assertions:\"PRESUMED_SWAPPED…
## # … with 13 more rows
```
…
