…
show_all_datasets()
```

```
## Error in `show_all_datasets()`:
## ! The `collections_datasets` API is not available for the selected atlas (Guatemala)
## ℹ Use `show_all_apis()` to list valid API calls
```

```r
show_all_fields()
```

```
## # A tibble: 129 × 4
##    id                   description                                                                   type  link 
##    <chr>                <chr>                                                                         <chr> <chr>
##  1 all_image_url        Image URLs for this record                                                    fiel… <NA> 
##  2 assertion_user_id    User ID of the person who has made an assertion about this record             fiel… <NA> 
##  3 assertions           A list of all assertions (user and system supplied) for a record resulting f… fiel… <NA> 
##  4 assertions_missing   Assertion indicating missing field values for a record. E.g. missing basis o… fiel… <NA> 
##  5 assertions_passed    Assertion indicating a data quality test has been passed by this record       fiel… <NA> 
##  6 assertions_unchecked Assertion indicating a data quality test was not performed for this record t… fiel… <NA> 
##  7 basis_of_record      The basis of record e.g. Specimen, Observation http://rs.tdwg.org/dwc/terms/… fiel… <NA> 
##  8 catalogue_number     http://rs.tdwg.org/dwc/terms/catalogNumber                                    fiel… <NA> 
##  9 class                The class the Atlas has matched this record to in the NSL http://rs.tdwg.org… fiel… <NA> 
## 10 collection_code      The collection code for this record. This will be populated if the data has … fiel… <NA> 
## # … with 119 more rows
```
…
