…
```r
galah_call() |>
  galah_filter(
     taxonConceptID == search_taxa("Animalia")$taxon_concept_id,
     taxonConceptID != search_taxa("Chordata")$taxon_concept_id
  ) |>
  galah_group_by(class) |>
  atlas_counts()
```

```
## # A tibble: 83 × 2
##   class          count
##   <chr>          <int>
## 1 Insecta      3946686
## 2 Gastropoda    877870
## 3 Malacostraca  573736
## 4 Arachnida     552483
## # … with 79 more rows
```

# galah_group_by
Use `galah_group_by` to group record counts and summarise counts by specified fields:


```r
# Get record counts since 2010, grouped by year and basis of record
galah_call() |>
  galah_filter(year > 2015 & year <= 2020) |>
  galah_group_by(year, basisOfRecord) |>
  atlas_counts()
```

```
## # A tibble: 25 × 3
##   basisOfRecord     year    count
##   <chr>             <chr>   <int>
## 1 HUMAN_OBSERVATION 2020  6293134
## 2 HUMAN_OBSERVATION 2019  5517448
## 3 HUMAN_OBSERVATION 2018  5237802
## 4 HUMAN_OBSERVATION 2017  4347223
## # … with 21 more rows
```
…
```r
# Get *Reptilia* records from 1930, but only 'eventDate' and 'kingdom' columns
occurrences <- galah_call() |>
  galah_identify("reptilia") |>
  galah_filter(year == 1930) |>
  galah_select(eventDate, kingdom) |>
  atlas_occurrences()

occurrences
```

```
## # A tibble: 54 × 2
##   eventDate            kingdom 
##   <chr>                <chr>   
## 1 1929-12-31T14:00:00Z Animalia
## 2 1929-12-31T14:00:00Z Animalia
## 3 1929-12-31T14:00:00Z Animalia
## 4 1929-12-31T14:00:00Z Animalia
## # … with 50 more rows
```
…
