…
Use `galah_group_by` to group record counts and summarise counts by specified fields:


```r
# Get record counts since 2010, grouped by year and basis of record
galah_config(verbose = FALSE)
atlas_counts(
  filter = galah_filter(year > 2015 & year <= 2020),
  group_by = galah_group_by(year, basisOfRecord, expand = TRUE)
  )
```

```
## # A tibble: 35 × 3
##    year  basisOfRecord         count
##    <chr> <chr>                 <int>
##  1 2020  HUMAN_OBSERVATION   5820506
##  2 2020  PRESERVED_SPECIMEN    13637
##  3 2020  OBSERVATION            2863
##  4 2020  UNKNOWN                 365
##  5 2020  MATERIAL_SAMPLE         250
##  6 2020  LIVING_SPECIMEN         127
##  7 2020  MACHINE_OBSERVATION      37
##  8 2019  HUMAN_OBSERVATION   5399921
##  9 2019  UNKNOWN               51747
## 10 2019  PRESERVED_SPECIMEN    38117
## # … with 25 more rows
```
…
