…
Or to download the records themselves:




``` r
galah_call() |>
  identify("Eolophus roseicapilla") |> 
  filter(year == 2010) |>
  select(eventDate, decimalLatitude, species) |>  # choose columns to keep
  collect()
```

```
## # A tibble: 21,984 × 3
##    eventDate decimalLatitude species              
##    <dttm>              <dbl> <chr>                
##  1 NA                  -38.2 Eolophus roseicapilla
##  2 NA                  -38.2 Eolophus roseicapilla
##  3 NA                  -37.0 Eolophus roseicapilla
##  4 NA                  -37.7 Eolophus roseicapilla
##  5 NA                  -35.6 Eolophus roseicapilla
##  6 NA                  -31.1 Eolophus roseicapilla
##  7 NA                  -38.2 Eolophus roseicapilla
##  8 NA                  -36.8 Eolophus roseicapilla
##  9 NA                  -38.3 Eolophus roseicapilla
## 10 NA                  -36.8 Eolophus roseicapilla
## # ℹ 21,974 more rows
```
…
Building queries using `filter()` requires that you know two things:

- what **fields** (columns) are present in the dataset you are searching
- what **values** exist for those fields

Finding this information requires looking for metadata:


``` r
request_metadata() |>
  collect()
```

```
## # A tibble: 639 × 3
##    id                  description               type  
##    <chr>               <chr>                     <chr> 
##  1 abcdTypeStatus      <NA>                      fields
##  2 acceptedNameUsage   Accepted name             fields
##  3 acceptedNameUsageID Accepted name             fields
##  4 accessRights        Access rights             fields
##  5 annotationsDoi      <NA>                      fields
##  6 annotationsUid      Referenced by publication fields
##  7 assertionUserId     Assertions by user        fields
##  8 assertions          Record issues             fields
##  9 assertionsCount     <NA>                      fields
## 10 associatedMedia     Associated Media          fields
## # ℹ 629 more rows
```
…
Or occurrences:


``` r
galah_call() |>
  identify("Eolophus roseicapilla") |>
  filter(year == 2000,
         cl22 == "Australian Capital Territory") |>
  atlas_occurrences() |>
  print(n = 6)
```

```
## # A tibble: 2,032 × 9
##   recordID                             scientificName        taxonConceptID                                                            decimalLatitude decimalLongitude eventDate           basisOfRecord     occurrenceStatus dataResourceName           
##   <chr>                                <chr>                 <chr>                                                                               <dbl>            <dbl> <dttm>              <chr>             <chr>            <chr>                      
## 1 0026d29f-b6ab-4a1d-9c57-6ee12cfde3a0 Eolophus roseicapilla https://biodiversity.org.au/afd/taxa/9b4ad548-8bb3-486a-ab0a-905506c463ea           -35.4             149. 2000-08-07 00:00:00 HUMAN_OBSERVATION PRESENT          Garden Bird Surveys        
## 2 0062d446-007b-4164-ac4f-ae84297e2578 Eolophus roseicapilla https://biodiversity.org.au/afd/taxa/9b4ad548-8bb3-486a-ab0a-905506c463ea           -35.3             149. 2000-03-10 00:00:00 HUMAN_OBSERVATION PRESENT          BirdLife Australia, Birdata
## 3 00a62ee0-1e08-4114-b0d8-9b7905472d53 Eolophus roseicapilla https://biodiversity.org.au/afd/taxa/9b4ad548-8bb3-486a-ab0a-905506c463ea           -35.2             149. 2000-01-29 00:00:00 HUMAN_OBSERVATION PRESENT          Garden Bird Surveys        
## 4 00ab2f4d-326f-4b01-9a8a-1a10c1f77e3c Eolophus roseicapilla https://biodiversity.org.au/afd/taxa/9b4ad548-8bb3-486a-ab0a-905506c463ea           -35.4             149. 2000-09-25 00:00:00 HUMAN_OBSERVATION PRESENT          Garden Bird Surveys        
## 5 00ae4631-ea59-44ec-b8f8-4377b6b3b3ef Eolophus roseicapilla https://biodiversity.org.au/afd/taxa/9b4ad548-8bb3-486a-ab0a-905506c463ea           -35.3             149. 2000-02-12 00:00:00 HUMAN_OBSERVATION PRESENT          BirdLife Australia, Birdata
## 6 00b6c8ec-e7b9-4d9f-9638-d962b1b4acfa Eolophus roseicapilla https://biodiversity.org.au/afd/taxa/9b4ad548-8bb3-486a-ab0a-905506c463ea           -35.2             149. 2000-02-05 00:00:00 HUMAN_OBSERVATION PRESENT          Garden Bird Surveys        
## # ℹ 2,026 more rows
```
…
