Return a count of records — atlas_counts • galah
…
With no arguments, return the total number of records in the ALA

atlas_counts()
#> # A tibble: 1 x 1
#>       count
#>       <int>
#> 1 102070026

You can group counts by state and territory with galah_group_by

galah_call() |>
  galah_group_by(stateProvince) |>
  atlas_counts()
#> # A tibble: 100 x 2
#>   stateProvince      count
#>   <chr>              <int>
#> 1 New South Wales 24938082
#> 2 Victoria        21775800
#> 3 Queensland      17550396
#> 4 South Australia  8449336
#> # ... with 96 more rows
…
Using galah_group_by allows you to cross-tabulate using two different
variables, similar to using dplyr::group_by() %>% dplyr::count()

records <- galah_call() |>
  galah_filter(year > 2015) |>
  galah_group_by(year, basisOfRecord) |>
  atlas_counts()

records
#> # A tibble: 41 x 3
#>   basisOfRecord     year    count
#>   <chr>             <chr>   <int>
#> 1 HUMAN_OBSERVATION 2020  5825030
#> 2 HUMAN_OBSERVATION 2019  5401216
#> 3 HUMAN_OBSERVATION 2018  5267959
#> 4 HUMAN_OBSERVATION 2017  4348547
#> # ... with 37 more rows
…
