Search for record information — search_all • galah
…
    Examples

Fields

Search for all fields that use include the word "date"

search_fields("date")
#> # A tibble: 22 x 4
#>   id        description                                              type  link 
#>   <chr>     <chr>                                                    <chr> <chr>
#> 1 month     "Month of observation, specimen collection date. http:/~ fiel~ <NA> 
#> 2 cl23      "Local Government Areas 2012 deprecated LGA Boundaries ~ laye~ http~
#> 3 eventDate "The ISO formatted date of observation, specimen collec~ fiel~ <NA> 
#> 4 cl10903   "Tenure of Australia's forests (2013) v2.0 Tenure of Au~ laye~ http~
#> # ... with 18 more rows
…
search_all(fields, "marine") # equivalent

Search for all Wordclim layers

search_fields("worldclim")
#> # A tibble: 38 x 4
#>   id      description                                                type  link 
#>   <chr>   <chr>                                                      <chr> <chr>
#> 1 el10982 WorldClim 2.1: Temperature - warmest month max Max Temper~ laye~ http~
#> 2 el10981 WorldClim 2.1: Temperature - seasonality Temperature Seas~ laye~ http~
#> 3 el10980 WorldClim 2.1: Temperature - isothermality Isothermality   laye~ http~
#> 4 el10990 WorldClim 2.1: Precipitation - wettest month Precipitatio~ laye~ http~
#> # ... with 34 more rows
…
