Show or search for values within a specified field — show_values • galah
…
# Search for any values in field 'cl22' that match 'tas'
search_fields("cl22") |> 
  search_values("tas")
#> • Showing values for 'cl22'.
#> # A tibble: 1 × 2
#>   field category
#>   <chr> <chr>   
#> 1 cl22  Tasmania

# See individual filters within data quality profile "ALA"
search_profiles("ALA") |> 
  show_values()
#> ! Search returned 2 matched profiles.
#> • Showing values for 'ALA'.
#> # A tibble: 23 × 2
#>    description                                                            filter
#>    <chr>                                                                  <chr> 
#>  1 "Exclude all records where spatial validity is \"false\""              "-spa…
#>  2 "Exclude all records with an assertion that the scientific name provi… "-ass…
#>  3 "Exclude all records with an assertion that the scientific name provi… "-ass…
#>  4 "Exclude all records with an assertion that the name and classificati… "-ass…
#>  5 "Exclude all records with an assertion that kingdom provided doesn't … "-ass…
#>  6 "Exclude all records with an assertion that the scientific name provi… "-ass…
#>  7 "Exclude all records with an assertion of the occurence is cultivated… "-est…
#>  8 "Exclude all records with an assertion of latitude value provided is … "-dec…
#>  9 "Exclude all records with an assertion of longitude value provided is… "-dec…
#> 10 "Exclude all records with an assertion of  latitude and longitude hav… "-ass…
#> # … with 13 more rows
…
