Query layers, fields or assertions by free text search — search_fields • galah
…
link: For layers, a link to the source data (if available)

    Details

    Layers are the subset of fields that are spatially appended to each record
by the ALA. Layer ids are comprised of a prefix: 'el' for environmental
(gridded) layers and 'cl' for contextual (polygon) layers,  followed by an
id number.

    Examples

Search for all fields that use include the word "date"

search_fields("date")
#> # A tibble: 33 x 4
#>   id             description     type   link 
#>   <chr>          <chr>           <chr>  <chr>
#> 1 dateIdentified Date Identified fields <NA> 
#> 2 datePrecision  Date precision  fields <NA> 
#> 3 eventDate      Event Date      fields <NA> 
#> 4 eventDateEnd   <NA>            fields <NA> 
#> # ... with 29 more rows
…
Search for all Wordclim layers

search_fields("worldclim", type = "layers")
#> # A tibble: 38 x 4
#>   id      description                                                                     type   link                      
#>   <chr>   <chr>                                                                           <chr>  <chr>                     
#> 1 el10982 WorldClim 2.1: Temperature - warmest month max Max Temperature of Warmest Month layers https://www.worldclim.org~
#> 2 el10981 WorldClim 2.1: Temperature - seasonality Temperature Seasonality                layers https://www.worldclim.org~
#> 3 el10980 WorldClim 2.1: Temperature - isothermality Isothermality                        layers https://www.worldclim.org~
#> 4 el10990 WorldClim 2.1: Precipitation - wettest month Precipitation of Wettest Month     layers https://www.worldclim.org~
#> # ... with 34 more rows

See a listing of all valid fields and layers

show_all_fields()
#> # A tibble: 790 x 4
#>   id                  description        type   link 
#>   <chr>               <chr>              <chr>  <chr>
#> 1 acceptedNameUsage   Accepted name      fields <NA> 
#> 2 acceptedNameUsageID Accepted name      fields <NA> 
#> 3 accessRights        Access rights      fields <NA> 
#> 4 assertionUserId     Assertions by user fields <NA> 
#> # ... with 786 more rows
…
