http_interactions:
- request:
    method: get
    uri: https://taxref.mnhn.fr/api/taxa/search?scientificNames=Vulpes%20vulpes&page=1&size=5
    body:
      encoding: ''
      string: ''
    headers:
      Accept-Encoding: gzip, deflate
      Accept: application/json, text/xml, application/xml, */*
      User-Agent: galah 1.5.1
  response:
    status:
      status_code: '200'
      message: OK
      explanation: Request fulfilled, document follows
    headers:
      access-control-allow-credentials: 'true'
      access-control-allow-headers: origin, content-type, accept, x-requested-with,
        destination
      access-control-allow-methods:
      - GET, HEAD, OPTIONS, POST, PUT
      - PUT, GET, POST, DELETE, OPTIONS
      access-control-allow-origin: '*'
      content-type: application/hal+json; version=1;charset=UTF-8
      date: Mon, 09 Jan 2023 08:12:19 GMT
      server: Apache
      status: HTTP/1.1 200 OK
      transfer-encoding: chunked
    body:
      encoding: ''
      file: no
      string: '{"_embedded":{"taxa":[{"id":60585,"referenceId":60585,"parentId":198937,"scientificName":"Vulpes
        vulpes","authority":"(Linnaeus, 1758)","fullName":"Vulpes vulpes (Linnaeus,
        1758)","fullNameHtml":"<i>Vulpes vulpes</i> (Linnaeus, 1758)","rankId":"ES","rankName":"Espèce","referenceName":"Vulpes
        vulpes (Linnaeus, 1758)","referenceNameHtml":"<i>Vulpes vulpes</i> (Linnaeus,
        1758)","frenchVernacularName":"Renard roux, Renard, Goupil","englishVernacularName":"Red
        Fox","genusName":"Vulpes","familyName":"Canidae","orderName":"Carnivora","className":"Mammalia","phylumName":"Chordata","kingdomName":"Animalia","vernacularGenusName":null,"vernacularFamilyName":"Loups,
        Renards","vernacularOrderName":null,"vernacularClassName":"Mammifères","vernacularPhylumName":"Chordés","vernacularKingdomName":"Animaux","vernacularGroup1":"Chordés","vernacularGroup2":"Mammifères","vernacularGroup3":"Autres","habitat":"3","fr":"P","gf":"A","mar":"A","gua":"A","sm":"A","sb":"A","spm":"C","may":"A","epa":"A","reu":"A","sa":"A","ta":"A","nc":"A","wf":"A","pf":"A","cli":"A","taxrefVersion":"16.0","_links":{"self":{"href":"https://taxref.mnhn.fr/api/taxa/60585"},"reference":{"href":"https://taxref.mnhn.fr/api/taxa/60585"},"parent":{"href":"https://taxref.mnhn.fr/api/taxa/198937"},"synonyms":{"href":"https://taxref.mnhn.fr/api/taxa/60585/synonyms"},"classification":{"href":"https://taxref.mnhn.fr/api/taxa/60585/classification"},"children":{"href":"https://taxref.mnhn.fr/api/taxa/60585/children"},"vernacularNames":{"href":"https://taxref.mnhn.fr/api/taxa/60585/vernacularNames"},"media":{"href":"https://taxref.mnhn.fr/api/taxa/60585/media"},"status":{"href":"https://taxref.mnhn.fr/api/taxa/60585/status/lines"},"interactions":{"href":"https://taxref.mnhn.fr/api/taxa/60585/interactions"},"taxrefHistory":{"href":"https://taxref.mnhn.fr/api/taxa/60585/taxrefHistory"},"externalIds":{"href":"https://taxref.mnhn.fr/api/taxa/60585/externalIds"},"taxonomicRank":{"href":"https://taxref.mnhn.fr/api/taxonomicRanks/ES"},"habitat":{"href":"https://taxref.mnhn.fr/api/habitats/3"},"taxrefUri":{"href":"http://taxref.mnhn.fr/lod/taxon/60585"},"inpnWebpage":{"href":"https://inpn.mnhn.fr/espece/cd_nom/60585"}}},{"id":899247,"referenceId":899247,"parentId":60585,"scientificName":"Vulpes
        vulpes crucigera","authority":"(Bechstein, 1789)","fullName":"Vulpes vulpes
        crucigera (Bechstein, 1789)","fullNameHtml":"<i>Vulpes vulpes crucigera</i>
        (Bechstein, 1789)","rankId":"SSES","rankName":"Sous-Espèce","referenceName":"Vulpes
        vulpes crucigera (Bechstein, 1789)","referenceNameHtml":"<i>Vulpes vulpes
        crucigera</i> (Bechstein, 1789)","frenchVernacularName":null,"englishVernacularName":null,"genusName":"Vulpes","familyName":"Canidae","orderName":"Carnivora","className":"Mammalia","phylumName":"Chordata","kingdomName":"Animalia","vernacularGenusName":null,"vernacularFamilyName":"Loups,
        Renards","vernacularOrderName":null,"vernacularClassName":"Mammifères","vernacularPhylumName":"Chordés","vernacularKingdomName":"Animaux","vernacularGroup1":"Chordés","vernacularGroup2":"Mammifères","vernacularGroup3":"Autres","habitat":"3","fr":"P","gf":"A","mar":"A","gua":"A","sm":"A","sb":"A","spm":"A","may":"A","epa":"A","reu":"A","sa":"A","ta":"A","nc":"A","wf":"A","pf":"A","cli":"A","taxrefVersion":"16.0","_links":{"self":{"href":"https://taxref.mnhn.fr/api/taxa/899247"},"reference":{"href":"https://taxref.mnhn.fr/api/taxa/899247"},"parent":{"href":"https://taxref.mnhn.fr/api/taxa/60585"},"synonyms":{"href":"https://taxref.mnhn.fr/api/taxa/899247/synonyms"},"classification":{"href":"https://taxref.mnhn.fr/api/taxa/899247/classification"},"children":{"href":"https://taxref.mnhn.fr/api/taxa/899247/children"},"vernacularNames":{"href":"https://taxref.mnhn.fr/api/taxa/899247/vernacularNames"},"media":{"href":"https://taxref.mnhn.fr/api/taxa/899247/media"},"status":{"href":"https://taxref.mnhn.fr/api/taxa/899247/status/lines"},"interactions":{"href":"https://taxref.mnhn.fr/api/taxa/899247/interactions"},"taxrefHistory":{"href":"https://taxref.mnhn.fr/api/taxa/899247/taxrefHistory"},"externalIds":{"href":"https://taxref.mnhn.fr/api/taxa/899247/externalIds"},"taxonomicRank":{"href":"https://taxref.mnhn.fr/api/taxonomicRanks/SSES"},"habitat":{"href":"https://taxref.mnhn.fr/api/habitats/3"},"taxrefUri":{"href":"http://taxref.mnhn.fr/lod/taxon/899247"},"inpnWebpage":{"href":"https://inpn.mnhn.fr/espece/cd_nom/899247"}}},{"id":899248,"referenceId":899248,"parentId":60585,"scientificName":"Vulpes
        vulpes deletrix","authority":"Bangs, 1898","fullName":"Vulpes vulpes deletrix
        Bangs, 1898","fullNameHtml":"<i>Vulpes vulpes deletrix</i> Bangs, 1898","rankId":"SSES","rankName":"Sous-Espèce","referenceName":"Vulpes
        vulpes deletrix Bangs, 1898","referenceNameHtml":"<i>Vulpes vulpes deletrix</i>
        Bangs, 1898","frenchVernacularName":null,"englishVernacularName":null,"genusName":"Vulpes","familyName":"Canidae","orderName":"Carnivora","className":"Mammalia","phylumName":"Chordata","kingdomName":"Animalia","vernacularGenusName":null,"vernacularFamilyName":"Loups,
        Renards","vernacularOrderName":null,"vernacularClassName":"Mammifères","vernacularPhylumName":"Chordés","vernacularKingdomName":"Animaux","vernacularGroup1":"Chordés","vernacularGroup2":"Mammifères","vernacularGroup3":"Autres","habitat":"3","fr":"A","gf":"A","mar":"A","gua":"A","sm":"A","sb":"A","spm":"C","may":"A","epa":"A","reu":"A","sa":"A","ta":"A","nc":"A","wf":"A","pf":"A","cli":"A","taxrefVersion":"16.0","_links":{"self":{"href":"https://taxref.mnhn.fr/api/taxa/899248"},"reference":{"href":"https://taxref.mnhn.fr/api/taxa/899248"},"parent":{"href":"https://taxref.mnhn.fr/api/taxa/60585"},"synonyms":{"href":"https://taxref.mnhn.fr/api/taxa/899248/synonyms"},"classification":{"href":"https://taxref.mnhn.fr/api/taxa/899248/classification"},"children":{"href":"https://taxref.mnhn.fr/api/taxa/899248/children"},"vernacularNames":{"href":"https://taxref.mnhn.fr/api/taxa/899248/vernacularNames"},"media":{"href":"https://taxref.mnhn.fr/api/taxa/899248/media"},"status":{"href":"https://taxref.mnhn.fr/api/taxa/899248/status/lines"},"interactions":{"href":"https://taxref.mnhn.fr/api/taxa/899248/interactions"},"taxrefHistory":{"href":"https://taxref.mnhn.fr/api/taxa/899248/taxrefHistory"},"externalIds":{"href":"https://taxref.mnhn.fr/api/taxa/899248/externalIds"},"taxonomicRank":{"href":"https://taxref.mnhn.fr/api/taxonomicRanks/SSES"},"habitat":{"href":"https://taxref.mnhn.fr/api/habitats/3"},"taxrefUri":{"href":"http://taxref.mnhn.fr/lod/taxon/899248"},"inpnWebpage":{"href":"https://inpn.mnhn.fr/espece/cd_nom/899248"}}},{"id":653797,"referenceId":653797,"parentId":60585,"scientificName":"Vulpes
        vulpes fulva","authority":"(Desmarest, 1820)","fullName":"Vulpes vulpes fulva
        (Desmarest, 1820)","fullNameHtml":"<i>Vulpes vulpes fulva</i> (Desmarest,
        1820)","rankId":"SSES","rankName":"Sous-Espèce","referenceName":"Vulpes vulpes
        fulva (Desmarest, 1820)","referenceNameHtml":"<i>Vulpes vulpes fulva</i> (Desmarest,
        1820)","frenchVernacularName":"Renard argenté","englishVernacularName":"American
        Red Fox, Eastern American Red Fox, Silver Fox","genusName":"Vulpes","familyName":"Canidae","orderName":"Carnivora","className":"Mammalia","phylumName":"Chordata","kingdomName":"Animalia","vernacularGenusName":null,"vernacularFamilyName":"Loups,
        Renards","vernacularOrderName":null,"vernacularClassName":"Mammifères","vernacularPhylumName":"Chordés","vernacularKingdomName":"Animaux","vernacularGroup1":"Chordés","vernacularGroup2":"Mammifères","vernacularGroup3":"Autres","habitat":"3","fr":null,"gf":null,"mar":null,"gua":null,"sm":null,"sb":null,"spm":"C","may":null,"epa":null,"reu":null,"sa":null,"ta":null,"nc":null,"wf":null,"pf":null,"cli":null,"taxrefVersion":"16.0","_links":{"self":{"href":"https://taxref.mnhn.fr/api/taxa/653797"},"reference":{"href":"https://taxref.mnhn.fr/api/taxa/653797"},"parent":{"href":"https://taxref.mnhn.fr/api/taxa/60585"},"synonyms":{"href":"https://taxref.mnhn.fr/api/taxa/653797/synonyms"},"classification":{"href":"https://taxref.mnhn.fr/api/taxa/653797/classification"},"children":{"href":"https://taxref.mnhn.fr/api/taxa/653797/children"},"vernacularNames":{"href":"https://taxref.mnhn.fr/api/taxa/653797/vernacularNames"},"media":{"href":"https://taxref.mnhn.fr/api/taxa/653797/media"},"status":{"href":"https://taxref.mnhn.fr/api/taxa/653797/status/lines"},"interactions":{"href":"https://taxref.mnhn.fr/api/taxa/653797/interactions"},"taxrefHistory":{"href":"https://taxref.mnhn.fr/api/taxa/653797/taxrefHistory"},"externalIds":{"href":"https://taxref.mnhn.fr/api/taxa/653797/externalIds"},"taxonomicRank":{"href":"https://taxref.mnhn.fr/api/taxonomicRanks/SSES"},"habitat":{"href":"https://taxref.mnhn.fr/api/habitats/3"},"taxrefUri":{"href":"http://taxref.mnhn.fr/lod/taxon/653797"},"inpnWebpage":{"href":"https://inpn.mnhn.fr/espece/cd_nom/653797"}}},{"id":60589,"referenceId":60589,"parentId":60585,"scientificName":"Vulpes
        vulpes ichnusae","authority":"Miller, 1907","fullName":"Vulpes vulpes ichnusae
        Miller, 1907","fullNameHtml":"<i>Vulpes vulpes ichnusae</i> Miller, 1907","rankId":"SSES","rankName":"Sous-Espèce","referenceName":"Vulpes
        vulpes ichnusae Miller, 1907","referenceNameHtml":"<i>Vulpes vulpes ichnusae</i>
        Miller, 1907","frenchVernacularName":null,"englishVernacularName":null,"genusName":"Vulpes","familyName":"Canidae","orderName":"Carnivora","className":"Mammalia","phylumName":"Chordata","kingdomName":"Animalia","vernacularGenusName":null,"vernacularFamilyName":"Loups,
        Renards","vernacularOrderName":null,"vernacularClassName":"Mammifères","vernacularPhylumName":"Chordés","vernacularKingdomName":"Animaux","vernacularGroup1":"Chordés","vernacularGroup2":"Mammifères","vernacularGroup3":"Autres","habitat":"3","fr":"I","gf":"A","mar":"A","gua":"A","sm":"A","sb":"A","spm":"A","may":"A","epa":"A","reu":"A","sa":"A","ta":"A","nc":"A","wf":"A","pf":"A","cli":"A","taxrefVersion":"16.0","_links":{"self":{"href":"https://taxref.mnhn.fr/api/taxa/60589"},"reference":{"href":"https://taxref.mnhn.fr/api/taxa/60589"},"parent":{"href":"https://taxref.mnhn.fr/api/taxa/60585"},"synonyms":{"href":"https://taxref.mnhn.fr/api/taxa/60589/synonyms"},"classification":{"href":"https://taxref.mnhn.fr/api/taxa/60589/classification"},"children":{"href":"https://taxref.mnhn.fr/api/taxa/60589/children"},"vernacularNames":{"href":"https://taxref.mnhn.fr/api/taxa/60589/vernacularNames"},"media":{"href":"https://taxref.mnhn.fr/api/taxa/60589/media"},"status":{"href":"https://taxref.mnhn.fr/api/taxa/60589/status/lines"},"interactions":{"href":"https://taxref.mnhn.fr/api/taxa/60589/interactions"},"taxrefHistory":{"href":"https://taxref.mnhn.fr/api/taxa/60589/taxrefHistory"},"externalIds":{"href":"https://taxref.mnhn.fr/api/taxa/60589/externalIds"},"taxonomicRank":{"href":"https://taxref.mnhn.fr/api/taxonomicRanks/SSES"},"habitat":{"href":"https://taxref.mnhn.fr/api/habitats/3"},"taxrefUri":{"href":"http://taxref.mnhn.fr/lod/taxon/60589"},"inpnWebpage":{"href":"https://inpn.mnhn.fr/espece/cd_nom/60589"}}}]},"_links":{"self":{"href":"https://taxref.mnhn.fr/api/taxa/search?version=16.0&scientificNames=Vulpes%20vulpes&page=1&size=5{&taxrefIds,frenchVernacularNames,englishVernacularNames,taxonomicRanks,territories,domain,habitats,vernacularGroups}","templated":true},"first":{"href":"https://taxref.mnhn.fr/api/taxa/search?version=16.0&scientificNames=Vulpes%20vulpes&page=1&size=5{&taxrefIds,frenchVernacularNames,englishVernacularNames,taxonomicRanks,territories,domain,habitats,vernacularGroups}","templated":true},"next":{"href":"https://taxref.mnhn.fr/api/taxa/search?version=16.0&scientificNames=Vulpes%20vulpes&page=2&size=5{&taxrefIds,frenchVernacularNames,englishVernacularNames,taxonomicRanks,territories,domain,habitats,vernacularGroups}","templated":true},"last":{"href":"https://taxref.mnhn.fr/api/taxa/search?version=16.0&scientificNames=Vulpes%20vulpes&page=2&size=5{&taxrefIds,frenchVernacularNames,englishVernacularNames,taxonomicRanks,territories,domain,habitats,vernacularGroups}","templated":true}},"page":{"size":5,"totalElements":6,"totalPages":2,"number":1}}'
  recorded_at: 2023-01-09 08:12:20 GMT
  recorded_with: vcr/1.2.0, webmockr/0.8.0
