…
So to download data, we might try something like:

    result <- galah_call() |>
        filter(species_list_uid == "dr491") |>
        collect()

    > result
    # A tibble: 487 × 12
       recordID   scientificName taxonConceptID decimalLatitude sensitive_decimalLat…¹ decimalLongitude
       <chr>      <chr>          <chr>                    <dbl>                  <dbl>            <dbl>
     1 00825ab0-… Caladenia vul… https://id.bi…           -37.8                     NA             145.
     2 0094e7df-… Caladenia vul… https://id.bi…           -37.7                     NA             141.
     3 00d3a4e3-… Caladenia vul… https://id.bi…           -39.6                     NA             147.
     4 02305849-… Caladenia vul… https://id.bi…           -38.0                     NA             145.
     5 02e28dc1-… Caladenia vul… https://id.bi…           -37.7                     NA             145.
     6 068b4c68-… Caladenia vul… https://id.bi…           -37.7                     NA             141.
     7 07b5356b-… Caladenia vul… https://id.bi…           -37.0                     NA             143.
     8 0807fcbe-… Caladenia vul… https://id.bi…           -37.9                     NA             145.
     9 093df7f4-… Caladenia vul… https://id.bi…           -37.9                     NA             145.
    10 0942b709-… Caladenia vul… https://id.bi…           -38.4                     NA             145.
    # ℹ 477 more rows
    # ℹ abbreviated name: ¹​sensitive_decimalLatitude
    # ℹ 6 more variables: sensitive_decimalLongitude <dbl>, eventDate <dttm>,
    #   sensitive_eventDate <lgl>, basisOfRecord <chr>, occurrenceStatus <chr>, dataResourceName <chr>
    # ℹ Use `print(n = ...)` to see more rows
…
