Download data reproducibly • galah
…
library(galah)
galah_config(email = "your-email-here",
             directory = "ALA_downloads")

# download bandicoot occurrence records from 2003
occs <- galah_call() |>
  identify("perameles") |>
  filter(year == 2003) |>
  atlas_occurrences(mint_doi = TRUE,                  # add DOI
                    file = "bandicoots_2003_data.zip" # specify filename
                    )

occs |> print(n = 5)

## # A tibble: 201 × 8
##   recordID    scientificName taxonConceptID decimalLatitude decimalLongitude
##   <chr>       <chr>          <chr>                    <dbl>            <dbl>
## 1 00300a96-e… Perameles nas… https://biodi…           -33.7             151.
## 2 0134472a-2… Perameles nas… https://biodi…           -34.7             151.
## 3 01e7b99e-9… Perameles gun… https://biodi…           -42.9             147.
## 4 029c49f0-b… Perameles nas… https://biodi…           -35.1             151.
## 5 0345dbe1-9… Perameles nas… https://biodi…           -35.5             150.
## # ℹ 196 more rows
## # ℹ 3 more variables: eventDate <dttm>, occurrenceStatus <chr>,
## #   dataResourceName <chr>
…
If you need to reload this data locally, you can do that by simply
calling read_zip():

read_zip("./ALA_downloads/bandicoots_2003_data.zip") |>
  print(n = 5)

## # A tibble: 201 × 8
##   recordID    scientificName taxonConceptID decimalLatitude decimalLongitude
##   <chr>       <chr>          <chr>                    <dbl>            <dbl>
## 1 00300a96-e… Perameles nas… https://biodi…           -33.7             151.
## 2 0134472a-2… Perameles nas… https://biodi…           -34.7             151.
## 3 01e7b99e-9… Perameles gun… https://biodi…           -42.9             147.
## 4 029c49f0-b… Perameles nas… https://biodi…           -35.1             151.
## 5 0345dbe1-9… Perameles nas… https://biodi…           -35.5             150.
## # ℹ 196 more rows
## # ℹ 3 more variables: eventDate <dttm>, occurrenceStatus <chr>,
## #   dataResourceName <chr>
…
plot of chunk atlas-support

Download data using a DOI

To use a DOI to return the results of a query again, we’ll use
galah_filter(). We can specify that we would like to filter
our results to only the records returned by our DOI.

occs_again <- galah_call() |>
  filter(doi == attributes(occs)$doi) |> # filter by doi
  atlas_occurrences()

occs_again |> print(n = 5)

## # A tibble: 201 × 8
##   recordID    scientificName taxonConceptID decimalLatitude decimalLongitude
##   <chr>       <chr>          <chr>                    <dbl>            <dbl>
## 1 00300a96-e… Perameles nas… https://biodi…           -33.7             151.
## 2 0134472a-2… Perameles nas… https://biodi…           -34.7             151.
## 3 01e7b99e-9… Perameles gun… https://biodi…           -42.9             147.
## 4 029c49f0-b… Perameles nas… https://biodi…           -35.1             151.
## 5 0345dbe1-9… Perameles nas… https://biodi…           -35.5             150.
## # ℹ 196 more rows
## # ℹ 3 more variables: eventDate <dttm>, occurrenceStatus <chr>,
## #   dataResourceName <chr>
…
