# Look up information

galah supports two functions to look up information:
[`show_all()`](https://galah.ala.org.au/R/reference/show_all.md) and
[`search_all()`](https://galah.ala.org.au/R/reference/search_all.md).
The first argument to both functions is a type of information that you
wish to look up; for example to see what fields are available to filter
a query by, use:

``` r
show_all(fields)
```

    ## # A tibble: 695 × 3
    ##    id                  description               type  
    ##    <chr>               <chr>                     <chr> 
    ##  1 _nest_parent_       <NA>                      fields
    ##  2 _nest_path_         <NA>                      fields
    ##  3 _root_              <NA>                      fields
    ##  4 abcdTypeStatus      <NA>                      fields
    ##  5 acceptedNameUsage   Accepted name             fields
    ##  6 acceptedNameUsageID Accepted name             fields
    ##  7 accessRights        Access rights             fields
    ##  8 annotationsDoi      <NA>                      fields
    ##  9 annotationsUid      Referenced by publication fields
    ## 10 assertionUserId     Assertions by user        fields
    ## # ℹ 685 more rows
…
