Narrow your results • galah
…
galah_filter() can also be used to make more complex
taxonomic queries than are possible using search_taxa(). By
using the taxonConceptID field, it is possible to build
queries that exclude certain taxa, for example. This can be useful to
filter for paraphyletic concepts such as invertebrates.

galah_call() |>
  galah_filter(
     taxonConceptID == search_taxa("Animalia")$taxon_concept_id,
     taxonConceptID != search_taxa("Chordata")$taxon_concept_id
  ) |>
  galah_group_by(class) |>
  atlas_counts()

## # A tibble: 70 × 2
##    class          count
##    <chr>          <int>
##  1 Insecta      6228043
##  2 Gastropoda    970153
##  3 Arachnida     812946
##  4 Maxillopoda   700845
##  5 Malacostraca  657558
##  6 Polychaeta    276240
##  7 Bivalvia      231228
##  8 Anthozoa      221108
##  9 Cephalopoda   148054
## 10 Demospongiae  117913
## # ℹ 60 more rows
…
To see a full list of data quality profiles, use
show_all(profiles).

galah_group_by

Use galah_group_by() to group and summarise record
counts by specified fields.

# Get record counts since 2010, grouped by year and basis of record
galah_call() |>
  galah_filter(year > 2015 & year <= 2020) |>
  galah_group_by(year, basisOfRecord) |>
  atlas_counts()

## # A tibble: 36 × 3
##    year  basisOfRecord         count
##    <chr> <chr>                 <int>
##  1 2020  HUMAN_OBSERVATION   6583810
##  2 2020  OCCURRENCE           419843
##  3 2020  PRESERVED_SPECIMEN    86211
##  4 2020  MACHINE_OBSERVATION   39643
##  5 2020  OBSERVATION           24801
##  6 2020  MATERIAL_SAMPLE        2034
##  7 2020  LIVING_SPECIMEN          62
##  8 2019  HUMAN_OBSERVATION   5753392
##  9 2019  OCCURRENCE           290610
## 10 2019  PRESERVED_SPECIMEN   167373
## # ℹ 26 more rows
…
