…
And, once satisfied that your parameters are correct, download the
records themselves:

``` r
galah_call() |>
  identify("Eolophus roseicapilla") |> 
  filter(year == 2010) |>
  select(eventDate, decimalLatitude, species) |>
  collect()
```

    ## # A tibble: 21,984 × 3
    ##    eventDate decimalLatitude species              
    ##    <dttm>              <dbl> <chr>                
    ##  1 NA                  -36.5 Eolophus roseicapilla
    ##  2 NA                  -38.2 Eolophus roseicapilla
    ##  3 NA                  -37.0 Eolophus roseicapilla
    ##  4 NA                  -37.7 Eolophus roseicapilla
    ##  5 NA                  -35.6 Eolophus roseicapilla
    ##  6 NA                  -31.1 Eolophus roseicapilla
    ##  7 NA                  -38.2 Eolophus roseicapilla
    ##  8 NA                  -38.2 Eolophus roseicapilla
    ##  9 NA                  -38.2 Eolophus roseicapilla
    ## 10 NA                  -38.2 Eolophus roseicapilla
    ## # ℹ 21,974 more rows
…
Building queries using
[`filter()`](https://dplyr.tidyverse.org/reference/filter.html) requires
that you know two things:

- what **fields** (columns) are present in the dataset you are searching
- what **values** exist for those fields

Finding this information requires looking for metadata:

``` r
request_metadata(type = "fields") |>
  collect()
```

    ## # A tibble: 639 × 3
    ##    id                  description               type  
    ##    <chr>               <chr>                     <chr> 
    ##  1 abcdTypeStatus      <NA>                      fields
    ##  2 acceptedNameUsage   Accepted name             fields
    ##  3 acceptedNameUsageID Accepted name             fields
    ##  4 accessRights        Access rights             fields
    ##  5 annotationsDoi      <NA>                      fields
    ##  6 annotationsUid      Referenced by publication fields
    ##  7 assertionUserId     Assertions by user        fields
    ##  8 assertions          Record issues             fields
    ##  9 assertionsCount     <NA>                      fields
    ## 10 associatedMedia     Associated Media          fields
    ## # ℹ 629 more rows
…
Or occurrences:

``` r
galah_call() |>
  identify("Eolophus roseicapilla") |>
  filter(year == 2000,
         cl22 == "Australian Capital Territory") |>
  atlas_occurrences() |>
  print(n = 6)
```

    ## # A tibble: 2,032 × 9
    ##   recordID         scientificName taxonConceptID decimalLatitude decimalLongitude eventDate           basisOfRecord occurrenceStatus
    ##   <chr>            <chr>          <chr>                    <dbl>            <dbl> <dttm>              <chr>         <chr>           
    ## 1 0026d29f-b6ab-4… Eolophus rose… https://biodi…           -35.4             149. 2000-08-07 00:00:00 HUMAN_OBSERV… PRESENT         
    ## 2 0062d446-007b-4… Eolophus rose… https://biodi…           -35.3             149. 2000-03-10 00:00:00 HUMAN_OBSERV… PRESENT         
    ## 3 00a62ee0-1e08-4… Eolophus rose… https://biodi…           -35.2             149. 2000-01-29 00:00:00 HUMAN_OBSERV… PRESENT         
    ## 4 00ab2f4d-326f-4… Eolophus rose… https://biodi…           -35.4             149. 2000-09-25 00:00:00 HUMAN_OBSERV… PRESENT         
    ## 5 00ae4631-ea59-4… Eolophus rose… https://biodi…           -35.3             149. 2000-02-12 00:00:00 HUMAN_OBSERV… PRESENT         
    ## 6 00b6c8ec-e7b9-4… Eolophus rose… https://biodi…           -35.2             149. 2000-02-05 00:00:00 HUMAN_OBSERV… PRESENT         
    ## # ℹ 2,026 more rows
    ## # ℹ 1 more variable: dataResourceName <chr>
…
Finally, metadata calls can be made more efficiently using the
[`show_all()`](https://galah.ala.org.au/R/reference/show_all.md) and
[`show_values()`](https://galah.ala.org.au/R/reference/show_values.md)
functions. These take the same arguments as the `type` argument in
[`request_metadata()`](https://galah.ala.org.au/R/reference/galah_call.md),
but use non-standard evaluation, so they don’t require quotes. They are
also evaluated immediately rather than lazily:

``` r
show_all(fields)
```

    ## # A tibble: 639 × 3
    ##    id                  description               type  
    ##    <chr>               <chr>                     <chr> 
    ##  1 abcdTypeStatus      <NA>                      fields
    ##  2 acceptedNameUsage   Accepted name             fields
    ##  3 acceptedNameUsageID Accepted name             fields
    ##  4 accessRights        Access rights             fields
    ##  5 annotationsDoi      <NA>                      fields
    ##  6 annotationsUid      Referenced by publication fields
    ##  7 assertionUserId     Assertions by user        fields
    ##  8 assertions          Record issues             fields
    ##  9 assertionsCount     <NA>                      fields
    ## 10 associatedMedia     Associated Media          fields
    ## # ℹ 629 more rows
…
